<?xml version="1.0" encoding="utf-8"?>
<!-- Generator: Adobe Illustrator 22.1.0, SVG Export Plug-In . SVG Version: 6.00 Build 0)  -->
<svg version="1.1" id="Camada_1" xmlns="http://www.w3.org/2000/svg" xmlns:xlink="http://www.w3.org/1999/xlink" x="0px" y="0px"
	 viewBox="0 0 119.3 119.3" style="enable-background:new 0 0 119.3 119.3;" xml:space="preserve">
<style type="text/css">
	.st0{fill:#C01570;}
	.st1{fill:#FAFAFA;}
</style>
<g>
	<g>
		<g>
			<g>
				<path id="SVGID_2_" class="st0" d="M119.1,59.7c0,32.9-26.5,59.4-59.4,59.4C27,119.1,0.2,92.6,0.2,59.7S27,0.2,59.7,0.2
					C92.6,0.2,119.1,26.7,119.1,59.7z"/>
			</g>
		</g>
	</g>
	<path class="st1" d="M83.3,27.7c-15.7,0-31.5,0-47.2,0c-5.7,0-8.6,2.9-8.6,8.6c0,7.9,0,15.5,0,23.4s0,15.7,0,23.6
		c0,5.5,3.1,8.4,8.4,8.4c16,0,31.7,0,47.5,0c5.5,0,8.6-3.1,8.6-8.6c0-15.7,0-31.5,0-47.2C91.9,30.5,88.8,27.7,83.3,27.7z M78,34.8
		c6.4,0,6.4,0,6.4,6.4c0,6.2,0,6.2-6.2,6.2s-6.2,0-6.2-6.2C71.8,34.8,71.8,34.8,78,34.8z M59.7,47.2c6.7,0,12.4,5.7,12.4,12.4
		c0,6.9-5.7,12.6-12.6,12.4C52.7,71.8,47,66.3,47,59.4C47.2,52.7,53,47.2,59.7,47.2z M84.5,80.6c0,3.1-0.7,3.8-3.8,3.8
		c-6.9,0-14.1,0-21,0s-13.8,0-21,0c-2.9,0-3.8-1-3.8-3.8c0-7.6,0-15.5,0-23.4c0-2.1,0.7-2.6,2.6-2.6c2.9,0.2,3.1,0,2.6,2.9
		c-1.2,10,5.7,19.6,15.5,21.5c10,1.9,20-4.1,22.9-13.8c0.7-3.1,1.2-6.2,0.5-9.3c-0.2-1.2,0-1.4,1-1.4c4.5-0.2,4.5-0.5,4.5,4.1
		C84.5,66.1,84.5,73.3,84.5,80.6z"/>
</g>
</svg>
