<?xml version="1.0" encoding="utf-8"?>
<!-- Generator: Adobe Illustrator 22.1.0, SVG Export Plug-In . SVG Version: 6.00 Build 0)  -->
<svg version="1.1" id="Camada_1" xmlns="http://www.w3.org/2000/svg" xmlns:xlink="http://www.w3.org/1999/xlink" x="0px" y="0px"
	 viewBox="0 0 119.3 119.3" style="enable-background:new 0 0 119.3 119.3;" xml:space="preserve">
<style type="text/css">
	.st0{fill:#007AB9;}
	.st1{fill:#F1F2F2;}
</style>
<g>
	<circle class="st0" cx="59.7" cy="59.7" r="59.5"/>
	<g>
		<path class="st1" d="M95.2,64.4v24.5H81V66.1c0-5.7-2-9.6-7.2-9.6c-3.9,0-6.3,2.6-7.3,5.2c-0.4,1-0.4,2.2-0.4,3.5V89H51.8
			c0,0,0.2-38.7,0-42.7H66v6l-0.1,0.1H66v-0.1c1.9-2.9,5.3-7.1,12.8-7.1C88.2,45.2,95.2,51.3,95.2,64.4L95.2,64.4z M37,25.6
			c-4.9,0-8.1,3.2-8.1,7.4c0,4.1,3.1,7.4,7.8,7.4h0.1c5,0,8.1-3.3,8.1-7.4C44.8,28.8,41.7,25.6,37,25.6L37,25.6z M29.8,88.9H44V46.2
			H29.8V88.9z"/>
	</g>
</g>
</svg>
