<?xml version="1.0" encoding="utf-8"?>
<!-- Generator: Adobe Illustrator 22.1.0, SVG Export Plug-In . SVG Version: 6.00 Build 0)  -->
<svg version="1.1" id="Camada_1" xmlns="http://www.w3.org/2000/svg" xmlns:xlink="http://www.w3.org/1999/xlink" x="0px" y="0px"
	 viewBox="0 0 600 184.2" style="enable-background:new 0 0 600 184.2;" xml:space="preserve">
<style type="text/css">
	.st0{fill:#9F87BB;}
	.st1{fill:#3D3D3F;}
</style>
<g>
	<g>
		<path class="st0" d="M224.1,57.7c0,0,15.8,55.9-46.8,88.1c0,0-33.3-43.4,20.7-65c0,0-68.9,20.7-51-33.4
			C167.1-13.4,224.1,57.7,224.1,57.7z"/>
		<path class="st0" d="M225.9,43.6c0,0-1.4-62.4-40.9-37.8C185,5.7,214.8-0.6,225.9,43.6z"/>
		<path class="st0" d="M232.4,43.6c0,0,1.4-62.4,40.9-37.8C273.3,5.7,243.5-0.6,232.4,43.6z"/>
		<path class="st0" d="M234.2,57.7c0,0-15.8,55.9,46.8,88.1c0,0,33.3-43.4-20.7-65c0,0,68.9,20.7,51-33.4
			C291.2-13.4,234.2,57.7,234.2,57.7z"/>
	</g>
	<g>
		<g>
			<polygon class="st1" points="339.8,55.6 600,59.7 339.8,63.7 			"/>
		</g>
		<g>
			<polygon class="st1" points="0,59.7 119.4,55.6 119.4,63.7 			"/>
		</g>
	</g>
	<g>
		<g>
			<path class="st1" d="M29.4,142.3c0-2.4,1.6-4.1,3.9-4.1c2.3,0,3.8,1.7,3.8,4.1c0,2.3-1.5,4.1-3.9,4.1
				C30.9,146.4,29.4,144.7,29.4,142.3z"/>
			<path class="st1" d="M57.4,101.9h5.7V123h0.2c1.2-1.7,2.3-3.3,3.4-4.7l13.4-16.5h7l-15.9,18.6l17.1,25.2h-6.7l-14.4-21.5
				l-4.2,4.8v16.7h-5.7V101.9z"/>
			<path class="st1" d="M111.4,101.9v43.8h-5.7v-43.8H111.4z"/>
			<path class="st1" d="M132.7,142.3c0-2.4,1.6-4.1,3.9-4.1c2.3,0,3.8,1.7,3.8,4.1c0,2.3-1.5,4.1-3.9,4.1
				C134.3,146.4,132.7,144.7,132.7,142.3z"/>
		</g>
	</g>
	<g>
		<g>
			<path class="st1" d="M318.6,102.5c2.5-0.5,6.4-0.9,10.3-0.9c5.7,0,9.3,1,12,3.2c2.3,1.7,3.6,4.3,3.6,7.7c0,4.2-2.8,7.9-7.4,9.6
				v0.1c4.2,1,9,4.5,9,11c0,3.8-1.5,6.6-3.7,8.8c-3.1,2.8-8,4.1-15.2,4.1c-3.9,0-6.9-0.3-8.8-0.5V102.5z M324.3,120.4h5.1
				c6,0,9.5-3.1,9.5-7.4c0-5.1-3.9-7.2-9.6-7.2c-2.6,0-4.1,0.2-5,0.4V120.4z M324.3,141.4c1.1,0.2,2.7,0.3,4.7,0.3
				c5.9,0,11.3-2.1,11.3-8.5c0-6-5.1-8.5-11.3-8.5h-4.7V141.4z"/>
			<path class="st1" d="M389.6,125.2h-17V141h19v4.7h-24.7v-43.8h23.7v4.7h-18v13.9h17V125.2z"/>
			<path class="st1" d="M411.9,101.9h5.7V141h18.7v4.7h-24.4V101.9z"/>
			<path class="st1" d="M478.3,125.2h-17V141h19v4.7h-24.7v-43.8h23.7v4.7h-18v13.9h17V125.2z"/>
			<path class="st1" d="M497.7,142.4l24.3-35.6v-0.2h-22.2v-4.7h29.6v3.4l-24.2,35.5v0.2h24.5v4.7h-32V142.4z"/>
			<path class="st1" d="M556.7,131.9l-4.6,13.8h-5.9l14.9-43.8h6.8l15,43.8h-6l-4.7-13.8H556.7z M571.1,127.5l-4.3-12.6
				c-1-2.9-1.6-5.5-2.3-8h-0.1c-0.7,2.6-1.4,5.3-2.2,7.9l-4.3,12.7H571.1z"/>
		</g>
	</g>
	<g>
		<path class="st1" d="M12.1,180.1c47-1.7,93.9-2.5,140.9-3.1c23.5-0.4,47-0.5,70.5-0.7l70.5-0.2l70.5,0.2l35.2,0.3l17.6,0.2
			l17.6,0.2c47,0.6,93.9,1.5,140.9,3.2c-47,1.7-93.9,2.6-140.9,3.2l-17.6,0.2l-17.6,0.2l-35.2,0.3l-70.5,0.2l-70.5-0.2
			c-23.5-0.2-47-0.3-70.5-0.7C106.1,182.7,59.1,181.8,12.1,180.1z"/>
	</g>
</g>
</svg>
