<?xml version="1.0" encoding="utf-8"?>
<!-- Generator: Adobe Illustrator 22.1.0, SVG Export Plug-In . SVG Version: 6.00 Build 0)  -->
<svg version="1.1" id="Camada_1" xmlns="http://www.w3.org/2000/svg" xmlns:xlink="http://www.w3.org/1999/xlink" x="0px" y="0px"
	 viewBox="0 0 170.2 145.7" style="enable-background:new 0 0 170.2 145.7;" xml:space="preserve">
<style type="text/css">
	.st0{fill:#FFFFFF;}
</style>
<g>
	<g>
		<path class="st0" d="M80.1,57.7c0,0,15.8,55.9-46.8,88.1c0,0-33.3-43.4,20.7-65c0,0-68.9,20.7-51-33.4
			C23-13.4,80.1,57.7,80.1,57.7z"/>
		<path class="st0" d="M81.9,43.6c0,0-1.4-62.4-40.9-37.8C40.9,5.7,70.7-0.6,81.9,43.6z"/>
		<path class="st0" d="M88.3,43.6c0,0,1.4-62.4,40.9-37.8C129.3,5.7,99.5-0.6,88.3,43.6z"/>
		<path class="st0" d="M90.1,57.7c0,0-15.8,55.9,46.8,88.1c0,0,33.3-43.4-20.7-65c0,0,68.9,20.7,51-33.4
			C147.2-13.4,90.1,57.7,90.1,57.7z"/>
	</g>
</g>
</svg>
