<?xml version="1.0" encoding="utf-8"?>
<!-- Generator: Adobe Illustrator 23.0.6, SVG Export Plug-In . SVG Version: 6.00 Build 0)  -->
<svg version="1.1" id="Camada_1" xmlns="http://www.w3.org/2000/svg" xmlns:xlink="http://www.w3.org/1999/xlink" x="0px" y="0px"
	 viewBox="0 0 120 120" style="enable-background:new 0 0 120 120;" xml:space="preserve">
<style type="text/css">
	.st0{fill:#FFFFFF;}
</style>
<g>
	<path class="st0" d="M56.5,49.3c0,0,11.1,39.4-33,62.1c0,0-23.5-30.6,14.6-45.8c0,0-48.6,14.6-36-23.5
		C16.2-0.8,56.5,49.3,56.5,49.3z"/>
	<path class="st0" d="M57.7,39.3c0,0-1-44-28.9-26.7C28.9,12.7,49.9,8.2,57.7,39.3z"/>
	<path class="st0" d="M62.3,39.3c0,0,1-44,28.9-26.7C91.1,12.7,70.1,8.2,62.3,39.3z"/>
	<path class="st0" d="M63.5,49.3c0,0-11.1,39.4,33,62.1c0,0,23.5-30.6-14.6-45.8c0,0,48.6,14.6,36-23.5
		C103.8-0.8,63.5,49.3,63.5,49.3z"/>
</g>
</svg>
